(kicad_pcb
	(version 20240108)
	(generator "pcbnew")
	(generator_version "8.0")
	(general
		(thickness 1.6)
		(legacy_teardrops no)
	)
	(paper "A4")
	(title_block
		(title "NOME_DO_PROJETO")
		(date "MES-ANO")
		(rev "0.0")
		(company "CLIENTE")
	)
	(layers
		(0 "F.Cu" signal)
		(31 "B.Cu" signal)
		(32 "B.Adhes" user "B.Adhesive")
		(33 "F.Adhes" user "F.Adhesive")
		(34 "B.Paste" user)
		(35 "F.Paste" user)
		(36 "B.SilkS" user "B.Silkscreen")
		(37 "F.SilkS" user "F.Silkscreen")
		(38 "B.Mask" user)
		(39 "F.Mask" user)
		(40 "Dwgs.User" user "User.Drawings")
		(41 "Cmts.User" user "User.Comments")
		(42 "Eco1.User" user "User.Eco1")
		(43 "Eco2.User" user "User.Eco2")
		(44 "Edge.Cuts" user)
		(45 "Margin" user)
		(46 "B.CrtYd" user "B.Courtyard")
		(47 "F.CrtYd" user "F.Courtyard")
		(48 "B.Fab" user)
		(49 "F.Fab" user)
		(50 "User.1" user)
		(51 "User.2" user)
		(52 "User.3" user)
		(53 "User.4" user)
		(54 "User.5" user)
		(55 "User.6" user)
		(56 "User.7" user)
		(57 "User.8" user)
		(58 "User.9" user)
	)
	(setup
		(stackup
			(layer "F.SilkS"
				(type "Top Silk Screen")
			)
			(layer "F.Paste"
				(type "Top Solder Paste")
			)
			(layer "F.Mask"
				(type "Top Solder Mask")
				(thickness 0.01)
			)
			(layer "F.Cu"
				(type "copper")
				(thickness 0.035)
			)
			(layer "dielectric 1"
				(type "core")
				(thickness 1.51)
				(material "FR4")
				(epsilon_r 4.5)
				(loss_tangent 0.02)
			)
			(layer "B.Cu"
				(type "copper")
				(thickness 0.035)
			)
			(layer "B.Mask"
				(type "Bottom Solder Mask")
				(thickness 0.01)
			)
			(layer "B.Paste"
				(type "Bottom Solder Paste")
			)
			(layer "B.SilkS"
				(type "Bottom Silk Screen")
			)
			(copper_finish "None")
			(dielectric_constraints no)
		)
		(pad_to_mask_clearance 0)
		(allow_soldermask_bridges_in_footprints no)
		(aux_axis_origin 12.075141 12.075159)
		(grid_origin 12.075141 12.075159)
		(pcbplotparams
			(layerselection 0x00012fc_ffffffff)
			(plot_on_all_layers_selection 0x0000000_00000000)
			(disableapertmacros no)
			(usegerberextensions no)
			(usegerberattributes yes)
			(usegerberadvancedattributes yes)
			(creategerberjobfile yes)
			(dashed_line_dash_ratio 12.000000)
			(dashed_line_gap_ratio 3.000000)
			(svgprecision 4)
			(plotframeref yes)
			(viasonmask no)
			(mode 1)
			(useauxorigin no)
			(hpglpennumber 1)
			(hpglpenspeed 20)
			(hpglpendiameter 15.000000)
			(pdf_front_fp_property_popups yes)
			(pdf_back_fp_property_popups yes)
			(dxfpolygonmode yes)
			(dxfimperialunits yes)
			(dxfusepcbnewfont yes)
			(psnegative no)
			(psa4output no)
			(plotreference yes)
			(plotvalue yes)
			(plotfptext yes)
			(plotinvisibletext no)
			(sketchpadsonfab no)
			(subtractmaskfromsilk no)
			(outputformat 1)
			(mirror no)
			(drillshape 0)
			(scaleselection 1)
			(outputdirectory "DOCS/GERBER/${TITLE}_REV_${REVISION}/")
		)
	)
	(net 0 "")
	(gr_text "${LAYER}"
		(at -26.299859 14.620159 0)
		(layer "F.Cu")
		(uuid "f3abdda7-c72d-4bdb-9fdd-4fc0a091c82a")
		(effects
			(font
				(size 1.5 1.5)
				(thickness 0.3)
				(bold yes)
			)
			(justify left bottom)
		)
	)
	(gr_text "${LAYER}"
		(at -26.299859 17.160159 0)
		(layer "B.Cu")
		(uuid "55b00e8c-014c-4061-8b9b-20a6b1ad6485")
		(effects
			(font
				(size 1.5 1.5)
				(thickness 0.3)
				(bold yes)
			)
			(justify left bottom)
		)
	)
	(gr_text "${LAYER}"
		(at -26.299859 22.240159 0)
		(layer "B.Adhes")
		(uuid "28276434-f4d8-4d8e-99fe-cff0fcdb20b7")
		(effects
			(font
				(size 1.5 1.5)
				(thickness 0.3)
				(bold yes)
			)
			(justify left bottom)
		)
	)
	(gr_text "${LAYER}"
		(at -26.299859 19.700159 0)
		(layer "F.Adhes")
		(uuid "9bed54fe-66b9-4ca9-b63f-fbfeb6d4a6a7")
		(effects
			(font
				(size 1.5 1.5)
				(thickness 0.3)
				(bold yes)
			)
			(justify left bottom)
		)
	)
	(gr_text "${LAYER}"
		(at -26.299859 27.320159 0)
		(layer "B.Paste")
		(uuid "b8521055-4fe8-429b-b866-b05f482a5b44")
		(effects
			(font
				(size 1.5 1.5)
				(thickness 0.3)
				(bold yes)
			)
			(justify left bottom)
		)
	)
	(gr_text "${LAYER}"
		(at -26.299859 24.780159 0)
		(layer "F.Paste")
		(uuid "e108ca60-622f-4bc0-9ebd-f815a3cd49b5")
		(effects
			(font
				(size 1.5 1.5)
				(thickness 0.3)
				(bold yes)
			)
			(justify left bottom)
		)
	)
	(gr_text "${LAYER}"
		(at -26.299859 32.400159 0)
		(layer "B.SilkS")
		(uuid "28bb70ea-9cde-4449-a97f-0eb7a63c0bc6")
		(effects
			(font
				(size 1.5 1.5)
				(thickness 0.3)
				(bold yes)
			)
			(justify left bottom)
		)
	)
	(gr_text "${TITLE}\nREV ${REVISION} (${ISSUE_DATE})"
		(at -15.864859 87.005159 0)
		(layer "F.SilkS")
		(uuid "487f70ed-d8fe-469c-9135-192c40a16945")
		(effects
			(font
				(size 1.5 1.5)
				(thickness 0.3)
				(bold yes)
			)
			(justify bottom)
		)
	)
	(gr_text "${LAYER}"
		(at -26.299859 29.860159 0)
		(layer "F.SilkS")
		(uuid "a2ca9f6d-67ba-45c0-9c44-476a3aaed023")
		(effects
			(font
				(size 1.5 1.5)
				(thickness 0.3)
				(bold yes)
			)
			(justify left bottom)
		)
	)
	(gr_text "${LAYER}"
		(at -26.299859 37.480159 0)
		(layer "B.Mask")
		(uuid "8a6e9aea-5e19-41d6-aca6-6b0e2bb9b9ad")
		(effects
			(font
				(size 1.5 1.5)
				(thickness 0.3)
				(bold yes)
			)
			(justify left bottom)
		)
	)
	(gr_text "${LAYER}"
		(at -26.299859 34.940159 0)
		(layer "F.Mask")
		(uuid "66ba3deb-3335-44cd-adf7-69e06233468a")
		(effects
			(font
				(size 1.5 1.5)
				(thickness 0.3)
				(bold yes)
			)
			(justify left bottom)
		)
	)
	(gr_text "${LAYER}"
		(at -26.299859 40.020159 0)
		(layer "Dwgs.User")
		(uuid "d9b7faae-238a-40d1-ae19-8717f643a7f3")
		(effects
			(font
				(size 1.5 1.5)
				(thickness 0.3)
				(bold yes)
			)
			(justify left bottom)
		)
	)
	(gr_text "${LAYER}"
		(at -26.299859 42.560159 0)
		(layer "Cmts.User")
		(uuid "3ab877cf-cbb4-4744-aca6-ed5760ea02ee")
		(effects
			(font
				(size 1.5 1.5)
				(thickness 0.3)
				(bold yes)
			)
			(justify left bottom)
		)
	)
	(gr_text "${LAYER}"
		(at -26.299859 45.100159 0)
		(layer "Eco1.User")
		(uuid "3262590f-c87e-45fb-8421-da0580f5fdb8")
		(effects
			(font
				(size 1.5 1.5)
				(thickness 0.3)
				(bold yes)
			)
			(justify left bottom)
		)
	)
	(gr_text "${LAYER}"
		(at -26.299859 47.640159 0)
		(layer "Eco2.User")
		(uuid "b1bbf8fd-b352-4d39-83a0-c519df275715")
		(effects
			(font
				(size 1.5 1.5)
				(thickness 0.3)
				(bold yes)
			)
			(justify left bottom)
		)
	)
	(gr_text "${LAYER}"
		(at -26.299859 50.180159 0)
		(layer "Edge.Cuts")
		(uuid "dca9212c-c37a-4751-a0e4-0acbe8a40689")
		(effects
			(font
				(size 1.5 1.5)
				(thickness 0.3)
				(bold yes)
			)
			(justify left bottom)
		)
	)
	(gr_text "${LAYER}"
		(at -26.299859 52.720159 0)
		(layer "Margin")
		(uuid "8db7a18f-9462-4466-8a09-dc656f29308a")
		(effects
			(font
				(size 1.5 1.5)
				(thickness 0.3)
				(bold yes)
			)
			(justify left bottom)
		)
	)
	(gr_text "${LAYER}"
		(at -26.299859 57.800159 0)
		(layer "B.CrtYd")
		(uuid "985de6c4-3ebb-4b28-bbe4-c6943e004afc")
		(effects
			(font
				(size 1.5 1.5)
				(thickness 0.3)
				(bold yes)
			)
			(justify left bottom)
		)
	)
	(gr_text "${LAYER}"
		(at -26.299859 55.260159 0)
		(layer "F.CrtYd")
		(uuid "097e1e9b-1980-4d7a-a083-5f3528b194b9")
		(effects
			(font
				(size 1.5 1.5)
				(thickness 0.3)
				(bold yes)
			)
			(justify left bottom)
		)
	)
	(gr_text "${LAYER}"
		(at -26.299859 62.880159 0)
		(layer "B.Fab")
		(uuid "08ed2132-7269-4666-88cb-f1e900134975")
		(effects
			(font
				(size 1.5 1.5)
				(thickness 0.3)
				(bold yes)
			)
			(justify left bottom)
		)
	)
	(gr_text "${LAYER}"
		(at -26.299859 60.340159 0)
		(layer "F.Fab")
		(uuid "2e024ad9-8537-40ab-aeaa-16a350838898")
		(effects
			(font
				(size 1.5 1.5)
				(thickness 0.3)
				(bold yes)
			)
			(justify left bottom)
		)
	)
)
